<?xml version="1.0" encoding="UTF-8" standalone="no"?>
<svg
   id="svg8"
   version="1.1"
   viewBox="0 0 185.20833 58.208336"
   height="220"
   width="700"
   sodipodi:docname="start-welcome-text.svg"
   inkscape:version="1.1-alpha (4d71f766f2, 2021-04-02)"
   xmlns:inkscape="http://www.inkscape.org/namespaces/inkscape"
   xmlns:sodipodi="http://sodipodi.sourceforge.net/DTD/sodipodi-0.dtd"
   xmlns="http://www.w3.org/2000/svg"
   xmlns:svg="http://www.w3.org/2000/svg">
  <sodipodi:namedview
     id="namedview7"
     pagecolor="#000000"
     bordercolor="#999999"
     borderopacity="1"
     objecttolerance="10.0"
     gridtolerance="10.0"
     guidetolerance="10.0"
     inkscape:pageshadow="0"
     inkscape:pageopacity="0"
     inkscape:pagecheckerboard="0"
     showgrid="false"
     inkscape:zoom="1.5357143"
     inkscape:cx="292.04651"
     inkscape:cy="109.72093"
     inkscape:window-width="1534"
     inkscape:window-height="843"
     inkscape:window-x="66"
     inkscape:window-y="20"
     inkscape:window-maximized="1"
     inkscape:current-layer="svg8" />
  <defs
     id="defs2" />
  <path
     id="path8025"
     style="font-style:normal;font-variant:normal;font-weight:normal;font-stretch:normal;font-size:7.29284px;line-height:1.25;font-family:'Euphoria Script';-inkscape-font-specification:'Euphoria Script';text-align:center;letter-spacing:0px;word-spacing:0px;text-anchor:middle;fill:#ffffff;stroke-width:0.264583"
     d="m 63.56901,45.634914 c -0.124465,0 -0.22914,0.102881 -0.314708,0.309026 -0.08168,0.206145 -0.122473,0.431922 -0.122473,0.676963 0.0039,0.07779 0.02877,0.116271 0.07545,0.116271 0.03501,0 0.05271,-0.0231 0.05271,-0.06976 0,-0.120576 0.0254,-0.245266 0.07596,-0.373621 0.02334,-0.05835 0.04822,-0.116326 0.07545,-0.174667 0.02723,-0.05834 0.05262,-0.11094 0.07596,-0.157612 0.02723,-0.04667 0.05263,-0.08747 0.07596,-0.122473 0.02334,-0.035 0.04874,-0.074 0.07596,-0.11679 2e-6,-0.05834 -0.0236,-0.08733 -0.07028,-0.08733 z m -0.5364,0.163299 c -0.610656,0 -1.04271,0.581115 -1.29553,1.74408 -0.07779,0.0078 -0.165277,0.01188 -0.262517,0.01188 -0.09723,0 -0.153421,-0.0118 -0.168981,-0.03514 -0.04667,0.01167 -0.07028,0.05657 -0.07028,0.134358 0.01945,0.09724 0.07615,0.145727 0.169498,0.145727 0.09335,0 0.186737,-0.0059 0.280087,-0.01757 -0.07001,0.361728 -0.149804,0.961062 -0.239262,1.797307 -0.08168,0.140023 -0.217657,0.396587 -0.408244,0.76998 -0.105019,0.213923 -0.210209,0.466897 -0.315228,0.758611 -0.105015,0.291713 -0.157612,0.521081 -0.157612,0.688329 0,0.23726 0.09929,0.355534 0.297656,0.355534 0.25671,0 0.452978,-0.186262 0.589111,-0.559655 0.06612,-0.182808 0.122828,-0.383185 0.1695,-0.600998 0.04667,-0.217813 0.08747,-0.470784 0.122473,-0.758611 0.035,-0.287822 0.07939,-0.705765 0.133842,-1.254186 0.05834,-0.54842 0.112731,-0.96688 0.163298,-1.254704 0.466741,-0.07779 0.737418,-0.116271 0.811319,-0.116271 0.07392,0 0.112921,-0.0236 0.116789,-0.07028 0.0078,-0.04667 -0.0063,-0.06976 -0.04134,-0.06976 -0.101126,0 -0.38309,0.0172 -0.845944,0.05219 0.09724,-0.497858 0.226036,-0.885015 0.385506,-1.161169 0.159472,-0.276156 0.371133,-0.41393 0.635621,-0.41393 0.02336,0 0.03696,-0.0195 0.04082,-0.05839 0.0039,-0.05834 -0.03279,-0.08733 -0.110585,-0.08733 z m -36.108391,0.01138 -0.320911,0.01757 c -0.622321,0.06612 -1.108252,0.309086 -1.458309,0.729155 -0.210034,0.248928 -0.315227,0.474704 -0.315227,0.67696 0,0.202255 0.0721,0.303339 0.216008,0.303339 0.0739,0 0.122389,-0.039 0.145728,-0.116787 -0.03501,0 -0.05271,-0.04079 -0.05271,-0.122473 0,-0.202255 0.08569,-0.419819 0.256834,-0.65319 0.338386,-0.455075 0.846127,-0.682646 1.522905,-0.682646 0.540641,0 0.937289,0.196271 1.190106,0.589111 0.190587,0.291713 0.285771,0.649361 0.285771,1.073319 0,0.190587 -0.0195,0.393274 -0.05839,0.607198 -0.112797,0.661217 -0.363458,1.236432 -0.752409,1.726509 -0.431737,0.544534 -0.914077,0.817004 -1.44694,0.817004 -0.470633,0 -0.767988,-0.132387 -0.892453,-0.396875 -0.03889,-0.08557 -0.05839,-0.178959 -0.05839,-0.280085 0,-0.101126 0.03078,-0.211704 0.09302,-0.33228 0.09724,-0.171137 0.212437,-0.256831 0.344681,-0.256831 0.01945,0 0.03305,-0.0118 0.04083,-0.03514 0.01164,-0.02334 0.01347,-0.04463 0.0057,-0.06408 -0.0039,-0.02334 -0.01569,-0.03514 -0.03514,-0.03514 -0.221703,0 -0.396677,0.124691 -0.525031,0.373621 -0.06612,0.136131 -0.09922,0.266208 -0.09922,0.390673 0,0.120576 0.0254,0.235776 0.07596,0.344681 0.167249,0.346167 0.55979,0.518832 1.178222,0.518832 0.622323,0 1.167267,-0.266054 1.634008,-0.798917 0.423958,-0.482301 0.692325,-1.069832 0.805119,-1.762168 0.03111,-0.206142 0.04651,-0.402412 0.04651,-0.58911 0,-0.451184 -0.09518,-0.850144 -0.285769,-1.196309 -0.318942,-0.56398 -0.832583,-0.845944 -1.540475,-0.845944 z m 45.699537,0 c -0.132245,0 -0.299525,0.227573 -0.50178,0.682646 -0.198366,0.451183 -0.36744,0.980218 -0.507463,1.586981 -0.167248,0.315053 -0.359413,0.66321 -0.577226,1.044382 -0.159469,0.276156 -0.315462,0.511424 -0.467153,0.705901 -0.147802,0.190584 -0.260176,0.285771 -0.337966,0.285771 -0.09724,0 -0.146243,-0.118274 -0.146243,-0.355534 0,-0.451184 0.114684,-0.929937 0.344165,-1.435571 0.198366,-0.447297 0.424143,-0.670761 0.67696,-0.670761 0.09335,0 0.151844,0.0331 0.175183,0.09922 0.02723,0.06223 0.06982,0.09302 0.128159,0.09302 0.05834,0 0.09324,-0.03258 0.104902,-0.0987 l -0.02894,-0.0646 c -0.01945,-0.04278 -0.06024,-0.08358 -0.122473,-0.122473 -0.06223,-0.04278 -0.152032,-0.06408 -0.268719,-0.06408 -0.116684,0 -0.246761,0.039 -0.390673,0.116787 -0.330608,0.175029 -0.597181,0.507277 -0.799433,0.997354 -0.147805,0.350057 -0.221692,0.671021 -0.221692,0.962734 0,0.501746 0.16369,0.752925 0.490408,0.752925 0.260598,0 0.66494,-0.480547 1.213363,-1.441257 h 0.07596 c -0.05445,0.350057 -0.08165,0.678715 -0.08165,0.985989 0,0.871249 0.231164,1.306896 0.694015,1.306896 0.105016,0 0.208415,-0.04849 0.309542,-0.145727 0.105016,-0.09724 0.174799,-0.178827 0.209806,-0.244946 0.035,-0.06612 0.06399,-0.124616 0.08733,-0.175184 0.0039,-0.01556 -0.0038,-0.02736 -0.02326,-0.03514 -0.05056,-0.01945 -0.08546,-0.0076 -0.104904,0.03514 -0.035,0.08168 -0.0953,0.163267 -0.180867,0.244946 -0.08168,0.08557 -0.170963,0.128157 -0.2682,0.128157 -0.252817,0 -0.379304,-0.289658 -0.379307,-0.869196 0,-0.388951 0.03489,-0.803304 0.104905,-1.24282 0.0739,-0.439515 0.153691,-0.816663 0.239263,-1.131713 0.08946,-0.318939 0.196445,-0.653499 0.32091,-1.003556 0.128352,-0.350057 0.238929,-0.626118 0.33228,-0.828374 0,-0.06612 -0.0331,-0.09922 -0.09922,-0.09922 z M 26.87771,46.212151 c -0.143912,0 -0.294004,0.163692 -0.449585,0.49041 -0.151691,0.322829 -0.279971,0.76386 -0.38499,1.323952 -0.105015,0.556199 -0.157096,1.130136 -0.157096,1.721342 0,0.31116 0.05798,0.466637 0.174667,0.466637 0.05445,0 0.08165,-0.0254 0.08165,-0.07596 0,-0.49008 0.122896,-1.285169 0.367938,-2.385901 0.132241,-0.602875 0.285408,-1.085215 0.460435,-1.446941 0,-0.06223 -0.03078,-0.09353 -0.09302,-0.09353 z m 12.082465,0.1695 c -0.09335,0 -0.16493,0.05208 -0.215489,0.157096 -0.05057,0.101127 -0.07597,0.198623 -0.07597,0.291973 0,0.155581 0.04079,0.233577 0.122473,0.233577 l 0.06976,-0.09922 c 0.143912,-0.210034 0.216008,-0.360127 0.216008,-0.449585 0,-0.08946 -0.039,-0.133842 -0.11679,-0.133842 z m 17.642853,0.425812 c -0.167251,0 -0.342227,0.247074 -0.525033,0.741043 -0.140026,0.0078 -0.242906,0.01138 -0.309026,0.01138 -0.06223,0 -0.105333,-0.0136 -0.128675,-0.04082 -0.0078,0 -0.01371,0.0024 -0.01757,0.0062 -0.03889,0.01167 -0.05788,0.04066 -0.05788,0.08733 0,0.124465 0.07569,0.186552 0.227375,0.186552 0.07779,0 0.143984,-0.0036 0.198438,-0.01138 -0.252817,0.774015 -0.379304,1.501116 -0.379304,2.181781 0,0.805129 0.231161,1.207677 0.694015,1.207677 0.105016,0 0.208413,-0.04849 0.309542,-0.145727 0.101126,-0.09724 0.169113,-0.178827 0.20412,-0.244946 0.03501,-0.06612 0.064,-0.124616 0.08733,-0.175184 0.0078,-0.01556 8.5e-5,-0.02736 -0.02326,-0.03514 -0.05056,-0.01945 -0.08366,-0.0076 -0.09922,0.03514 -0.03501,0.08168 -0.0953,0.163267 -0.180866,0.244946 -0.08557,0.08557 -0.176649,0.128675 -0.273886,0.128675 -0.241149,0 -0.361736,-0.301463 -0.361736,-0.904338 0,-0.602874 0.153167,-1.390785 0.460439,-2.363163 0.45118,-0.08168 0.698251,-0.122473 0.741039,-0.122473 0.08168,0 0.122473,-0.0313 0.122473,-0.09353 0,-0.03111 -0.0154,-0.04651 -0.04651,-0.04651 -0.116687,0 -0.367348,0.0213 -0.752409,0.06408 0.07779,-0.245041 0.147571,-0.445418 0.209807,-0.600999 -3e-6,-0.0739 -0.0331,-0.110587 -0.09922,-0.110587 z m -19.567799,0.233061 c -0.05834,0 -0.112731,0.0236 -0.163296,0.07028 -0.05057,0.04668 -0.07596,0.09927 -0.07596,0.157612 0,0.05445 0.03489,0.137835 0.104902,0.250632 0.07001,0.112794 0.161607,0.210291 0.274402,0.29197 v 0.03462 c 0,0.361726 -0.0526,0.729383 -0.157613,1.102776 -0.101129,0.369504 -0.229409,0.670967 -0.38499,0.904338 -0.151691,0.229481 -0.297677,0.344164 -0.4377,0.344164 -0.124465,0 -0.186552,-0.106986 -0.186552,-0.32091 0,-0.458962 0.118274,-1.094468 0.355534,-1.907376 0,-0.08168 -0.04259,-0.122992 -0.128157,-0.122992 -0.08557,0 -0.183065,0.1093 -0.291973,0.327113 l -0.250629,0.484208 c -0.163359,0.326719 -0.353729,0.653066 -0.571542,0.979784 -0.213924,0.326721 -0.371711,0.490411 -0.47284,0.490411 -0.08168,0 -0.122473,-0.09159 -0.122473,-0.274402 0,-0.186698 0.05619,-0.474562 0.168982,-0.863513 0.116686,-0.388953 0.210076,-0.670914 0.280088,-0.845944 0.07001,-0.178917 0.128508,-0.324387 0.175183,-0.437182 0,-0.08168 -0.03721,-0.122991 -0.111104,-0.122991 -0.155583,0.01945 -0.326451,0.233423 -0.513149,0.641823 -0.221702,0.513416 -0.332795,0.995757 -0.332795,1.44694 0,0.435626 0.128799,0.653706 0.385506,0.653706 0.260598,0 0.631843,-0.432056 1.114144,-1.295527 -0.01945,0.182806 -0.02894,0.354193 -0.02894,0.513662 0,0.280046 0.04849,0.495816 0.145727,0.647507 0.09335,0.136131 0.227534,0.204121 0.402561,0.204121 0.175027,0 0.351801,-0.128281 0.530717,-0.38499 0.178917,-0.260596 0.324903,-0.581559 0.437698,-0.962731 0.112797,-0.385062 0.173088,-0.760416 0.180869,-1.12603 0.09724,0.03889 0.186521,0.05839 0.2682,0.05839 0.08557,0 0.149966,-0.0213 0.192754,-0.06408 0.04667,-0.04667 0.06976,-0.09516 0.06976,-0.145727 -0.04279,0.02722 -0.116676,0.04082 -0.221692,0.04082 -0.101129,0 -0.208116,-0.0431 -0.32091,-0.128675 -0.01945,-0.167248 -0.05793,-0.315029 -0.116274,-0.443383 C 37.175327,47.106706 37.10913,47.04051 37.03523,47.04051 Z m 13.255005,0.0062 c -0.05056,0 -0.100846,0.02487 -0.151413,0.07545 -0.04667,0.04668 -0.07028,0.09748 -0.07028,0.151929 0,0.05445 0.039,0.140145 0.116789,0.256831 0.07779,0.116684 0.177081,0.213665 0.297657,0.291455 v 0.07028 c 0,0.361725 -0.0526,0.721167 -0.157615,1.079002 -0.101127,0.357836 -0.229407,0.648013 -0.38499,0.869715 -0.155581,0.217813 -0.305155,0.326596 -0.449067,0.326596 -0.25282,0 -0.379304,-0.231679 -0.379304,-0.694531 0,-0.381174 0.08928,-0.767813 0.2682,-1.160653 0.178917,-0.392843 0.391097,-0.589629 0.636135,-0.589629 -0.01167,-0.04668 -0.03296,-0.08157 -0.06408,-0.104902 -0.03112,-0.02334 -0.07012,-0.03514 -0.116789,-0.03514 -0.326718,3e-6 -0.608682,0.233476 -0.845945,0.700217 -0.186695,0.369504 -0.280085,0.738955 -0.280085,1.108459 0,0.657328 0.239374,0.985985 0.717786,0.985985 0.217812,0 0.423574,-0.126486 0.61805,-0.379304 0.194474,-0.256706 0.346364,-0.573563 0.455269,-0.950846 0.108929,-0.377283 0.165116,-0.752636 0.168981,-1.12603 0.105019,0.03889 0.198409,0.0584 0.280088,0.05839 0.08168,0 0.141973,-0.0213 0.180867,-0.06408 0.03889,-0.04279 0.05839,-0.09128 0.05839,-0.145727 -0.05445,0.03111 -0.128341,0.04651 -0.221691,0.04651 -0.08946,0 -0.194652,-0.04079 -0.315225,-0.122473 -0.02723,-0.167251 -0.07572,-0.316825 -0.145727,-0.449069 -0.07001,-0.132244 -0.142108,-0.198437 -0.216009,-0.198437 z m 8.42481,0 c -0.05056,0 -0.100846,0.02487 -0.151413,0.07545 -0.04667,0.04668 -0.07028,0.09748 -0.07028,0.151929 0,0.05445 0.039,0.140145 0.116787,0.256831 0.07779,0.116684 0.177083,0.213665 0.297656,0.291455 v 0.07028 c 0,0.361725 -0.0526,0.721167 -0.157612,1.079002 -0.101126,0.357836 -0.22941,0.648013 -0.38499,0.869715 -0.15558,0.217813 -0.305673,0.326596 -0.449585,0.326596 -0.252817,0 -0.378788,-0.231679 -0.378788,-0.694531 0,-0.381174 0.08928,-0.767813 0.2682,-1.160653 0.178919,-0.392843 0.391099,-0.589629 0.636138,-0.589629 -0.01167,-0.04668 -0.03348,-0.08157 -0.0646,-0.104902 -0.03112,-0.02334 -0.0696,-0.03514 -0.116271,-0.03514 -0.326721,3e-6 -0.6092,0.233476 -0.84646,0.700217 -0.186698,0.369504 -0.279569,0.738955 -0.279569,1.108459 0,0.657328 0.238857,0.985985 0.717266,0.985985 0.217813,0 0.424093,-0.126486 0.61857,-0.379304 0.194474,-0.256706 0.346361,-0.573563 0.455268,-0.950846 0.108929,-0.377283 0.165116,-0.752636 0.168982,-1.12603 0.105016,0.03889 0.198406,0.0584 0.280085,0.05839 0.08168,0 0.141975,-0.0213 0.180869,-0.06408 0.03889,-0.04279 0.05839,-0.09128 0.05839,-0.145727 -0.05445,0.03111 -0.128344,0.04651 -0.221692,0.04651 -0.08946,0 -0.194651,-0.04079 -0.315227,-0.122473 -0.02723,-0.167251 -0.07572,-0.316825 -0.145727,-0.449069 -0.07001,-0.132244 -0.142105,-0.198437 -0.216006,-0.198437 z m 15.390791,0 c -0.05056,0 -0.100846,0.02487 -0.151413,0.07545 -0.04667,0.04668 -0.07028,0.09748 -0.07028,0.151929 0,0.05445 0.039,0.140145 0.116787,0.256831 0.07779,0.116684 0.177083,0.213665 0.297657,0.291455 v 0.07028 c 0,0.361725 -0.0526,0.721167 -0.157613,1.079002 -0.101126,0.357836 -0.229409,0.648013 -0.38499,0.869715 -0.15558,0.217813 -0.305673,0.326596 -0.449585,0.326596 -0.252817,0 -0.379304,-0.231679 -0.379304,-0.694531 0,-0.381174 0.0898,-0.767813 0.268719,-1.160653 0.178916,-0.392843 0.39058,-0.589629 0.635619,-0.589629 -0.01167,-0.04668 -0.03297,-0.08157 -0.06408,-0.104902 -0.03111,-0.02334 -0.07011,-0.03514 -0.116787,-0.03514 -0.32672,3e-6 -0.608684,0.233476 -0.845944,0.700217 -0.186698,0.369504 -0.280085,0.738955 -0.280085,1.108459 0,0.657328 0.239374,0.985985 0.717785,0.985985 0.217813,0 0.42409,-0.126486 0.618567,-0.379304 0.194474,-0.256706 0.346361,-0.573563 0.455268,-0.950846 0.108929,-0.377283 0.165116,-0.752636 0.168982,-1.12603 0.105018,0.03889 0.198406,0.0584 0.280088,0.05839 0.08168,0 0.141973,-0.0213 0.180866,-0.06408 0.03889,-0.04279 0.05839,-0.09128 0.05839,-0.145727 -0.05445,0.03111 -0.128344,0.04651 -0.221692,0.04651 -0.08946,0 -0.194651,-0.04079 -0.315224,-0.122473 -0.02723,-0.167251 -0.07572,-0.316825 -0.14573,-0.449069 -0.07001,-0.132244 -0.142105,-0.198437 -0.216006,-0.198437 z m -42.835113,0.256315 c -0.178916,0 -0.376981,0.116996 -0.594793,0.350366 -0.381175,0.4084 -0.729332,0.976432 -1.044382,1.703771 h -0.04082 c 0.07779,-0.595095 0.206073,-1.176726 0.384989,-1.744596 0,-0.08557 -0.0372,-0.128675 -0.111103,-0.128675 -0.167249,0 -0.309129,0.235786 -0.425813,0.706419 -0.116686,0.47063 -0.175183,0.995558 -0.175183,1.575096 0,0.307272 0.0567,0.460955 0.169497,0.460955 0.06223,0 0.09302,-0.0236 0.09302,-0.07028 0,-0.190585 0.163693,-0.596723 0.490411,-1.219047 0.326718,-0.62621 0.622281,-1.054161 0.886767,-1.283642 -0.07001,0.15947 -0.104902,0.33034 -0.104902,0.513146 0,0.322832 0.07389,0.484209 0.221691,0.484209 0.01945,0 0.02894,-0.0154 0.02894,-0.04651 0,-0.24115 0.0331,-0.46282 0.09922,-0.665076 0.06612,-0.206144 0.118722,-0.336222 0.157615,-0.390673 0.03889,-0.05445 0.07199,-0.09525 0.09922,-0.122473 0,-0.035 -0.0136,-0.06451 -0.04082,-0.08785 -0.02334,-0.02334 -0.05464,-0.03514 -0.09354,-0.03514 z m 33.745228,0 c -0.178916,0 -0.376983,0.116996 -0.594796,0.350366 -0.381172,0.4084 -0.72933,0.976432 -1.04438,1.703771 h -0.04083 c 0.07779,-0.595095 0.206074,-1.176726 0.38499,-1.744596 0,-0.08557 -0.0372,-0.128675 -0.111104,-0.128675 -0.167251,0 -0.309128,0.235786 -0.425815,0.706419 -0.116684,0.47063 -0.174664,0.995558 -0.174664,1.575096 0,0.307272 0.05618,0.460955 0.168981,0.460955 0.06223,0 0.09353,-0.0236 0.09353,-0.07028 0,-0.190585 0.163174,-0.596723 0.489894,-1.219047 0.326718,-0.62621 0.622279,-1.054161 0.886767,-1.283642 -0.07001,0.15947 -0.104904,0.33034 -0.104904,0.513146 0,0.322832 0.07389,0.484209 0.221691,0.484209 0.01945,0 0.02894,-0.0154 0.02894,-0.04651 0,-0.24115 0.0331,-0.46282 0.09922,-0.665076 0.06612,-0.206144 0.118719,-0.336222 0.157613,-0.390673 0.03889,-0.05445 0.07199,-0.09525 0.09922,-0.122473 0,-0.035 -0.0136,-0.06451 -0.04082,-0.08785 -0.02334,-0.02334 -0.05464,-0.03514 -0.09354,-0.03514 z m -32.170129,0.140033 c -0.124465,0 -0.258648,0.039 -0.402558,0.116787 -0.334499,0.182808 -0.60466,0.525065 -0.810805,1.026811 -0.147801,0.357835 -0.221692,0.686495 -0.221692,0.985988 0,0.501745 0.159584,0.752925 0.478523,0.752925 0.248931,0 0.620178,-0.422048 1.114145,-1.266074 h 0.0584 c -0.04279,0.268378 -0.06408,0.548029 -0.06408,0.839743 0,0.291713 0.04259,0.544687 0.128157,0.75861 0.08946,0.213924 0.215945,0.320911 0.379306,0.320911 0.07001,0 0.136203,-0.04079 0.198438,-0.122473 0.06612,-0.08168 0.108709,-0.147871 0.128156,-0.198438 0.01945,-0.04668 0.03356,-0.08336 0.04134,-0.110588 0.0078,-0.02723 0.0078,-0.04673 0,-0.05839 -0.0078,-0.01167 -0.01958,-0.01757 -0.03514,-0.01757 -0.04279,0 -0.06998,0.0213 -0.08165,0.06408 -0.03112,0.08168 -0.06653,0.141973 -0.10542,0.180866 -0.0389,0.04279 -0.08148,0.06408 -0.128159,0.06408 -0.120574,0 -0.180867,-0.200377 -0.180867,-0.600998 0,-0.400619 0.0449,-0.803167 0.134358,-1.207678 0.08946,-0.404508 0.161555,-0.674669 0.216009,-0.810802 0.05445,-0.136134 0.09884,-0.241327 0.133842,-0.315227 0,-0.08946 -0.03669,-0.133843 -0.110588,-0.133843 -0.140023,0 -0.276516,0.140084 -0.40876,0.42013 -0.15947,0.315052 -0.367543,0.6863 -0.624253,1.114144 -0.147801,0.248931 -0.289679,0.457002 -0.425812,0.624253 -0.132244,0.163359 -0.235125,0.244946 -0.309026,0.244946 -0.09335,0 -0.140044,-0.11648 -0.140044,-0.349851 0,-0.462851 0.116478,-0.956995 0.349851,-1.482079 0.206142,-0.455073 0.435509,-0.682646 0.688329,-0.682646 0.05445,0 0.103458,0.0195 0.146244,0.05839 0.04279,0.035 0.06998,0.064 0.08165,0.08733 0.01167,0.01945 0.02117,0.04485 0.02894,0.07596 0.01167,0.02723 0.04887,0.04083 0.111104,0.04083 0.05445,0 0.08755,-0.0331 0.09922,-0.09922 l -0.03514,-0.07545 c -0.01945,-0.05445 -0.06614,-0.10936 -0.140042,-0.163814 -0.07001,-0.05445 -0.167507,-0.08165 -0.291973,-0.08165 z m 10.350273,0 c -0.124466,0 -0.258649,0.039 -0.402558,0.116787 -0.3345,0.182808 -0.604661,0.525065 -0.810806,1.026811 -0.147801,0.357835 -0.221691,0.686495 -0.221691,0.985988 0,0.501745 0.159067,0.752925 0.478007,0.752925 0.24893,0 0.630184,-0.441548 1.1436,-1.324467 h 0.06408 c -0.0078,0.05445 -0.02318,0.143734 -0.04651,0.2682 -0.02334,0.124465 -0.05233,0.295852 -0.08733,0.513664 -0.03111,0.213921 -0.06832,0.417889 -0.111106,0.612365 -0.427844,0.01556 -0.791395,0.110744 -1.090888,0.285772 -0.299492,0.178916 -0.532966,0.395202 -0.700217,0.648022 -0.01167,0.02334 -0.004,0.04232 0.02326,0.05788 0.05056,0.02334 0.08776,0.01796 0.111107,-0.01707 0.381172,-0.521192 0.921493,-0.789556 1.621604,-0.805116 -0.09335,0.435623 -0.227531,0.799174 -0.402558,1.090887 -0.194477,0.330611 -0.466431,0.495578 -0.816488,0.495578 -0.256707,0 -0.420399,-0.07927 -0.490411,-0.238744 -0.01556,-0.03889 -0.04454,-0.05481 -0.08733,-0.04703 -0.04279,0.01167 -0.06408,0.02937 -0.06408,0.05271 0,0.0078 0.0019,0.01728 0.0057,0.02894 0.105019,0.225592 0.317199,0.338479 0.636138,0.338479 0.435626,0 0.781471,-0.17318 1.03818,-0.519348 0.225592,-0.307271 0.398772,-0.698015 0.519348,-1.172538 0.09335,0.02334 0.169037,0.06054 0.227375,0.111104 0.05835,0.05056 0.09734,0.09905 0.11679,0.145727 0.02336,0.04668 0.03696,0.102862 0.04082,0.168984 0.0039,0.07001 0.0021,0.118499 -0.0057,0.145728 0.03501,0 0.0758,-0.0231 0.122473,-0.06976 0.04668,-0.04279 0.07028,-0.09538 0.07028,-0.157615 0,-0.05834 -0.0041,-0.105037 -0.01188,-0.140041 -0.04668,-0.20615 -0.217546,-0.334431 -0.513149,-0.38499 0.04668,-0.213924 0.102862,-0.509485 0.168984,-0.886767 0.06612,-0.381175 0.14001,-0.717529 0.221692,-1.009243 0.08168,-0.2956 0.137866,-0.474683 0.168981,-0.536919 0.03111,-0.06223 0.05472,-0.107129 0.07028,-0.134358 0,-0.09335 -0.04079,-0.140041 -0.122473,-0.140041 -0.128355,0 -0.250732,0.11879 -0.367419,0.35605 -0.229481,0.47063 -0.488357,0.931677 -0.776179,1.38286 -0.283935,0.447294 -0.490215,0.670761 -0.618567,0.670761 -0.09335,0 -0.140044,-0.11648 -0.140044,-0.34985 0,-0.462852 0.116996,-0.956995 0.350367,-1.482079 0.206142,-0.455073 0.435509,-0.682647 0.688329,-0.682647 0.05445,0 0.102942,0.0195 0.145728,0.05839 0.04279,0.035 0.06998,0.06399 0.08165,0.08733 0.01167,0.01945 0.02167,0.04485 0.02945,0.07596 0.01167,0.02723 0.04836,0.04082 0.110588,0.04082 0.05445,0 0.08755,-0.0331 0.09922,-0.09922 l -0.03514,-0.07545 c -0.01945,-0.05445 -0.06614,-0.10936 -0.140044,-0.163814 -0.07001,-0.05445 -0.166989,-0.08165 -0.291455,-0.08165 z m 33.605184,0.02946 c -0.431737,0 -0.904068,0.641924 -1.417484,1.925463 h -0.05271 c 0.07779,-0.595096 0.206071,-1.174933 0.38499,-1.738914 0,-0.08168 -0.03669,-0.122473 -0.110588,-0.122473 -0.167251,0 -0.309647,0.235271 -0.426331,0.705901 -0.116686,0.466741 -0.174667,0.991671 -0.174667,1.575099 0,0.307271 0.05798,0.460952 0.174667,0.460952 0.05834,0 0.08785,-0.0231 0.08785,-0.06976 0,-0.05445 0.06209,-0.241231 0.186552,-0.560171 0.124466,-0.322831 0.289949,-0.678685 0.496094,-1.067636 0.206145,-0.38895 0.394719,-0.655523 0.565856,-0.799436 0.02334,-0.01947 0.04874,-0.03075 0.07597,-0.03462 0.035,-0.0039 0.04629,0.01331 0.03462,0.05219 -0.175027,0.731229 -0.262517,1.33595 -0.262517,1.814359 0,0.307272 0.0567,0.460955 0.1695,0.460955 0.06223,0 0.09302,-0.0231 0.09302,-0.06976 0,-0.09335 0.136494,-0.396605 0.40876,-0.910021 0.272267,-0.517305 0.519338,-0.871365 0.74104,-1.061953 0.02334,-0.01947 0.04642,-0.03127 0.06976,-0.03514 0.02723,0 0.03672,0.0136 0.02894,0.04083 -0.124465,0.451183 -0.186553,0.974318 -0.186553,1.569413 0,0.338389 0.04079,0.612653 0.122473,0.822688 0.08557,0.213923 0.204359,0.32091 0.356053,0.32091 0.05056,0 0.100843,-0.0236 0.15141,-0.07028 0.05445,-0.04668 0.08986,-0.08336 0.105421,-0.110588 0.05832,-0.08557 0.06014,-0.128157 0.0057,-0.128157 -0.01556,0 -0.04454,0.01717 -0.08733,0.05219 -0.04278,0.03889 -0.08589,0.05839 -0.128672,0.05839 -0.124466,0 -0.186553,-0.206277 -0.186553,-0.618567 0,-0.637879 0.101084,-1.292884 0.30334,-1.96577 0,-0.178919 -0.09339,-0.268718 -0.280086,-0.268718 -0.140022,0 -0.297293,0.0975 -0.472323,0.291973 -0.175027,0.190584 -0.328711,0.398658 -0.460955,0.62425 -0.128352,0.221702 -0.256635,0.468775 -0.384987,0.741039 h -0.04703 c 0.08168,-0.528973 0.214069,-1.065704 0.396875,-1.610235 0,-0.182809 -0.09339,-0.274402 -0.280085,-0.274402 z m -36.995158,0.01138 c -0.167249,2e-6 -0.310923,0.235786 -0.431499,0.706419 -0.116683,0.47063 -0.175183,0.995558 -0.175183,1.575096 0,0.307271 0.06209,0.460954 0.186553,0.460954 0.05445,0 0.08217,-0.0236 0.08217,-0.07028 0,-0.05056 0.05798,-0.223745 0.174665,-0.519348 0.116686,-0.299492 0.278063,-0.63764 0.484208,-1.014923 0.206145,-0.377282 0.402932,-0.647446 0.58963,-0.810805 0.0389,-0.03112 0.07379,-0.04702 0.104902,-0.04702 0.04668,0 0.06207,0.0254 0.04651,0.07596 -0.167248,0.641771 -0.250629,1.231099 -0.250629,1.767851 0,0.338389 0.04079,0.612653 0.122473,0.822687 0.08557,0.213924 0.202046,0.320911 0.349848,0.320911 0.05445,0 0.107048,-0.0236 0.157615,-0.07028 0.05445,-0.04667 0.09166,-0.08336 0.111104,-0.110588 0.05445,-0.08557 0.05445,-0.128156 0,-0.128156 -0.01556,0 -0.04506,0.01717 -0.08785,0.05219 -0.04279,0.03889 -0.08769,0.05839 -0.134361,0.05839 -0.120573,0 -0.18035,-0.206277 -0.18035,-0.618566 0,-0.283935 0.03489,-0.614387 0.104904,-0.991669 0.0739,-0.377283 0.131879,-0.637953 0.174665,-0.781865 0.04279,-0.147802 0.0782,-0.266592 0.105421,-0.35605 0,-0.190587 -0.09929,-0.285771 -0.297657,-0.285771 -0.474519,0 -0.96276,0.620628 -1.464511,1.861383 h -0.05271 c 0.07779,-0.598985 0.206586,-1.188312 0.385505,-1.76785 0,-0.08557 -0.03541,-0.128675 -0.10542,-0.128675 z m 7.071402,0.01188 -0.03514,0.0057 c -0.15947,0.03501 -0.336241,0.283872 -0.530717,0.746726 -0.194474,0.458962 -0.291971,0.916418 -0.291971,1.371491 0,0.455073 0.147781,0.682646 0.443384,0.682646 0.264485,0 0.649848,-0.449244 1.155483,-1.347721 h 0.05219 c -0.05056,0.245039 -0.09495,0.497496 -0.133842,0.758092 -0.03889,0.260599 -0.0802,0.48817 -0.122989,0.682646 -0.427847,0.01556 -0.791398,0.110744 -1.09089,0.285771 -0.299493,0.178917 -0.532966,0.395203 -0.700215,0.648023 -0.01167,0.02334 -0.0035,0.04232 0.02376,0.05788 0.05056,0.02334 0.08725,0.01796 0.110588,-0.01707 0.377282,-0.521192 0.91812,-0.789556 1.622123,-0.805116 -0.09335,0.435623 -0.225737,0.799174 -0.396875,1.090887 -0.198366,0.33061 -0.472633,0.495578 -0.82269,0.495578 v 5.29e-4 c -0.256707,0 -0.41988,-0.07979 -0.489892,-0.23926 -0.01945,-0.03109 -0.04896,-0.04469 -0.08785,-0.04082 -0.04279,0.0078 -0.06408,0.02318 -0.06408,0.04651 0,0.0078 0.0019,0.01728 0.0057,0.02894 0.105015,0.225591 0.317195,0.338478 0.636135,0.338478 0.739007,0 1.258035,-0.563927 1.557528,-1.691886 0.09335,0.02334 0.169553,0.06054 0.227893,0.111104 0.05834,0.05056 0.09734,0.09905 0.116787,0.145727 0.02336,0.04668 0.03696,0.102863 0.04083,0.168985 0.0039,0.07001 0.0016,0.119017 -0.0062,0.146243 0.03501,0 0.0758,-0.0236 0.122476,-0.07028 0.04667,-0.04279 0.07028,-0.09538 0.07028,-0.157615 0,-0.05834 -0.0041,-0.105037 -0.01188,-0.140041 -0.04668,-0.20615 -0.217543,-0.334431 -0.513149,-0.38499 0.04668,-0.213924 0.102862,-0.509484 0.168984,-0.886767 0.06612,-0.381175 0.151815,-0.758322 0.256831,-1.131715 0.105016,-0.373394 0.194299,-0.628161 0.2682,-0.764294 0,-0.08946 -0.04079,-0.134358 -0.122473,-0.134358 -0.128354,0 -0.248938,0.118789 -0.361735,0.356049 -0.260596,0.56787 -0.56796,1.127689 -0.921907,1.680001 -0.241149,0.377283 -0.416126,0.565857 -0.525034,0.565857 -0.09335,0 -0.140041,-0.106471 -0.140041,-0.320395 0,-0.217813 0.05491,-0.519274 0.163814,-0.904338 0.108908,-0.38895 0.196395,-0.667324 0.262517,-0.834572 0.06612,-0.171141 0.12051,-0.309428 0.163296,-0.414446 0,-0.08557 -0.0331,-0.128156 -0.09922,-0.128156 z m 5.105114,0 c -0.163359,0 -0.352449,0.250661 -0.566372,0.752408 -0.194477,0.455073 -0.291455,0.91253 -0.291455,1.371492 0,0.455073 0.149575,0.682646 0.449067,0.682646 0.25282,0 0.614574,-0.410763 1.085205,-1.23145 h 0.05271 c -0.04279,0.303384 -0.06408,0.598945 -0.06408,0.886767 0,0.283935 0.04438,0.523311 0.133842,0.717785 0.08557,0.194477 0.206153,0.291973 0.361733,0.291973 0.07001,0 0.138004,-0.04311 0.204124,-0.128675 0.07001,-0.08168 0.114911,-0.14787 0.134358,-0.198437 0.02334,-0.05056 0.03873,-0.09315 0.04651,-0.128156 0.01167,-0.03501 -0.0037,-0.05271 -0.04651,-0.05271 -0.04281,0 -0.0659,0.0177 -0.06976,0.05271 -0.035,0.08557 -0.074,0.147658 -0.11679,0.186552 -0.0389,0.04279 -0.082,0.06408 -0.128675,0.06408 -0.116683,0 -0.174664,-0.190368 -0.174664,-0.57154 0,-0.260598 0.0213,-0.527169 0.06408,-0.799436 0.105018,-0.684553 0.281789,-1.273881 0.530717,-1.76785 0,-0.08557 -0.039,-0.128156 -0.116787,-0.128156 -0.163359,0 -0.322427,0.17318 -0.478007,0.519348 -0.151691,0.346165 -0.373364,0.765902 -0.665075,1.259871 -0.136134,0.229481 -0.270317,0.423955 -0.402561,0.583425 -0.128355,0.159472 -0.225851,0.239263 -0.291971,0.239263 -0.09335,0 -0.140044,-0.09877 -0.140044,-0.297141 0,-0.202252 0.0585,-0.507822 0.175184,-0.916223 0.116684,-0.408397 0.25677,-0.828651 0.420129,-1.260387 0,-0.08557 -0.03489,-0.128156 -0.104905,-0.128156 z m 14.690577,0 c -0.190587,0 -0.377365,0.05439 -0.560173,0.163295 -0.334497,0.206145 -0.596961,0.542499 -0.787548,1.009243 -0.120576,0.307271 -0.180867,0.591547 -0.180867,0.852143 0,0.140023 0.0172,0.276 0.05219,0.408244 0.112797,0.388951 0.375261,0.583428 0.787551,0.583428 0.105015,0 0.208412,-0.0254 0.309541,-0.07597 0.105016,-0.04668 0.188396,-0.09927 0.250629,-0.157615 0.06612,-0.06223 0.136422,-0.143817 0.210325,-0.244946 0.07779,-0.101123 0.122174,-0.17322 0.133842,-0.216006 0.0039,-0.02334 -0.02921,-0.03462 -0.09922,-0.03462 -0.04278,0 -0.07177,0.0154 -0.08733,0.04651 -0.06612,0.112794 -0.149505,0.215677 -0.250632,0.309025 -0.05056,0.04667 -0.113167,0.08798 -0.187068,0.122989 -0.0739,0.03111 -0.143687,0.04651 -0.209807,0.04651 -0.06612,0 -0.12051,-0.0077 -0.163298,-0.02326 -0.221702,-0.07779 -0.332796,-0.311263 -0.332796,-0.700214 0,-0.458962 0.11879,-0.906412 0.35605,-1.342038 0.221705,-0.400619 0.461079,-0.600996 0.717786,-0.600996 0.128354,0 0.192238,0.07979 0.192238,0.23926 0,0.213924 -0.09339,0.449194 -0.280088,0.705901 -0.229481,0.318942 -0.481936,0.478525 -0.758092,0.478525 0.01945,0.03889 0.04844,0.06789 0.08733,0.08733 0.0389,0.01945 0.08739,0.02945 0.145727,0.02945 0.373393,0 0.67306,-0.180877 0.898652,-0.542602 0.132244,-0.217813 0.198437,-0.425887 0.198437,-0.62425 0,-0.346168 -0.14778,-0.519348 -0.443383,-0.519348 z m 2.269112,0 c -0.190585,0 -0.376849,0.05439 -0.559655,0.163295 -0.3345,0.206145 -0.597479,0.542499 -0.788067,1.009243 -0.120573,0.307271 -0.180866,0.591547 -0.180866,0.852143 0,0.140023 0.0177,0.276 0.05271,0.408244 0.112794,0.388951 0.375259,0.583428 0.787548,0.583428 0.105019,0 0.208415,-0.0254 0.309541,-0.07597 0.105016,-0.04668 0.1884,-0.09927 0.250632,-0.157615 0.06612,-0.06223 0.135906,-0.143817 0.209807,-0.244946 0.07779,-0.101123 0.122693,-0.17322 0.134358,-0.216006 0.0039,-0.02334 -0.02921,-0.03462 -0.09922,-0.03462 -0.04278,0 -0.07177,0.0154 -0.08733,0.04651 -0.06612,0.112794 -0.150019,0.215677 -0.251148,0.309025 -0.05056,0.04667 -0.112652,0.08798 -0.186553,0.122989 -0.0739,0.03111 -0.143684,0.04651 -0.209804,0.04651 -0.06612,0 -0.120512,-0.0077 -0.163298,-0.02326 -0.221702,-0.07779 -0.332795,-0.311263 -0.332795,-0.700214 0,-0.458962 0.11879,-0.906412 0.356049,-1.342038 0.221703,-0.400619 0.460561,-0.600996 0.71727,-0.600996 0.128352,0 0.192752,0.07979 0.192752,0.23926 0,0.213924 -0.09339,0.449194 -0.280086,0.705901 -0.229481,0.318942 -0.482454,0.478525 -0.75861,0.478525 0.01945,0.03889 0.04896,0.06789 0.08785,0.08733 0.0389,0.01945 0.08739,0.02945 0.145727,0.02945 0.373394,0 0.673063,-0.180877 0.898655,-0.542602 0.132244,-0.217813 0.197922,-0.425887 0.197922,-0.62425 0,-0.346168 -0.147783,-0.519348 -0.443386,-0.519348 z m -30.30306,0.116787 c -0.182806,0 -0.334177,0.225261 -0.454753,0.676444 -0.116683,0.451183 -0.175183,0.964827 -0.175183,1.540476 0,0.326718 0.0526,0.489891 0.157615,0.489891 0.05834,0 0.08733,-0.02719 0.08733,-0.08165 0,-0.342279 0.04669,-0.731229 0.140041,-1.166855 0.09724,-0.439515 0.175239,-0.742773 0.23358,-0.910021 0.05834,-0.167249 0.106833,-0.301432 0.145727,-0.402561 0,-0.09724 -0.0449,-0.145727 -0.134361,-0.145727 z m 22.776905,2.257745 c -0.035,0.381172 -0.0758,0.752417 -0.122473,1.114142 -0.03112,0.241149 -0.0814,0.472829 -0.151413,0.694531 -0.06223,0.202255 -0.153826,0.303342 -0.2744,0.303342 -0.09335,0 -0.140044,-0.0644 -0.140044,-0.192754 0,-0.128352 0.0526,-0.359516 0.157613,-0.694013 0.06223,-0.198366 0.239003,-0.606816 0.530717,-1.225248 z" />
  <path
     id="path8006"
     style="font-style:normal;font-variant:normal;font-weight:normal;font-stretch:normal;font-size:13.6295px;line-height:1;font-family:'Linux Libertine Display';-inkscape-font-specification:'Linux Libertine Display';text-align:center;letter-spacing:0px;word-spacing:0px;text-anchor:middle;fill:#fff18d;fill-opacity:1;stroke-width:0.264583"
     d="m 33.03083,13.033148 c -0.361083,0.150783 -0.882876,0.25364 -1.565364,0.309191 -0.01983,0.107134 -0.006,0.184392 0.0416,0.232008 0.305532,0.01587 0.499931,0.07365 0.583258,0.172851 0.08729,0.09523 0.138954,0.353066 0.154825,0.773669 0.02381,0.468218 0.03605,1.367026 0.03605,2.696289 0,1.210224 -0.01223,2.23387 -0.03605,3.071107 -0.008,0.46425 -0.05959,0.750187 -0.154825,0.857321 -0.09126,0.103167 -0.319419,0.162526 -0.684472,0.178398 -0.03971,0.03967 -0.05761,0.08929 -0.05361,0.148818 0.0039,0.05555 0.02187,0.09905 0.05361,0.130793 0.138879,0 0.341436,-0.0097 0.607288,-0.02958 0.269822,-0.01985 0.493897,-0.03004 0.672456,-0.03004 0.178558,0 0.401056,0.0102 0.666908,0.03004 0.26982,0.01984 0.478037,0.02958 0.624853,0.02958 0.09126,-0.09523 0.09126,-0.188348 0,-0.279611 -0.365052,-0.01588 -0.595251,-0.07523 -0.69048,-0.178398 -0.09126,-0.107134 -0.140883,-0.393071 -0.148819,-0.857321 -0.01983,-0.777718 -0.02958,-1.696466 -0.02958,-2.755909 0,-1.186416 0.0097,-2.283239 0.02958,-3.291099 0.008,-0.503928 0.0238,-0.869165 0.04761,-1.095338 0.0039,-0.07539 -0.04769,-0.112769 -0.154824,-0.112769 z M 14.544106,13.62195 c -0.03571,0.03571 -0.05361,0.08375 -0.05361,0.143272 0,0.05555 0.01791,0.101088 0.05361,0.136802 0.281724,0.01984 0.496061,0.08893 0.642875,0.207975 0.146814,0.115071 0.273692,0.333489 0.380827,0.654893 l 2.220255,6.630263 c 0.02778,0.09523 0.0851,0.168869 0.172389,0.220455 0.0873,0.05159 0.180875,0.07718 0.280074,0.07718 0.130941,-0.0039 0.231759,-0.103206 0.303182,-0.297636 l 1.69662,-4.362404 c 0.06349,-0.202366 0.118765,-0.303644 0.16638,-0.303644 0.03968,0 0.09746,0.113058 0.172851,0.339231 l 1.428561,4.326817 c 0.06745,0.198397 0.204073,0.297636 0.410406,0.297636 0.158717,-0.0039 0.269736,-0.09913 0.333223,-0.285619 l 2.398652,-6.606693 c 0.08333,-0.242045 0.222446,-0.448222 0.416876,-0.618843 0.194429,-0.170621 0.446144,-0.26374 0.755645,-0.279612 0.03571,-0.03571 0.05361,-0.08125 0.05361,-0.136802 0,-0.05952 -0.0179,-0.107557 -0.05361,-0.143272 -0.150783,0.0039 -0.339059,0.01622 -0.565232,0.03605 -0.222206,0.01587 -0.386923,0.02357 -0.494058,0.02357 -0.111102,0 -0.323399,-0.0077 -0.636867,-0.02357 -0.313468,-0.01981 -0.549324,-0.03205 -0.708042,-0.03605 -0.03571,0.03571 -0.05361,0.08375 -0.05361,0.143272 0,0.05555 0.0179,0.101088 0.05361,0.136802 0.289661,0.01984 0.515777,0.09098 0.678463,0.213984 0.166653,0.123007 0.208112,0.303584 0.124785,0.541661 l -1.934174,5.55942 -0.08966,0.255579 -0.08319,-0.255579 -1.755777,-5.428164 c -0.09523,-0.293628 -0.06917,-0.507966 0.07765,-0.642876 0.146814,-0.138878 0.348909,-0.220218 0.606826,-0.244025 0.03571,-0.03571 0.05361,-0.08125 0.05361,-0.136802 0,-0.05952 -0.0179,-0.107557 -0.05361,-0.143272 -0.174589,0.0039 -0.426304,0.01622 -0.755645,0.03605 -0.329339,0.01587 -0.581516,0.02357 -0.756106,0.02357 -0.170622,0 -0.387,-0.0077 -0.648884,-0.02357 -0.261886,-0.01981 -0.463981,-0.03205 -0.606828,-0.03605 -0.03571,0.03571 -0.05361,0.08375 -0.05361,0.143272 0,0.05555 0.0179,0.101088 0.05361,0.136802 0.285693,0.01587 0.51589,0.115111 0.69048,0.297637 0.178558,0.182525 0.301355,0.378962 0.36881,0.589264 l 0.184405,0.565231 c 0.07936,0.249981 0.119239,0.41674 0.119239,0.500066 0,0.158716 -0.0081,0.259994 -0.02403,0.303644 l -1.535322,4.03519 -0.11924,0.291628 -0.07718,-0.291628 -1.827412,-5.618578 c -0.06349,-0.206333 -0.04355,-0.36697 0.05962,-0.482041 0.107135,-0.115067 0.273893,-0.178506 0.500066,-0.190413 0.03971,-0.03571 0.0576,-0.08125 0.05361,-0.136802 0,-0.05952 -0.0179,-0.107557 -0.05361,-0.143272 -0.07936,0 -0.288038,0.0102 -0.625314,0.03004 -0.333308,0.01985 -0.591143,0.02958 -0.773669,0.02958 -0.17459,0 -0.378725,-0.0077 -0.612835,-0.02358 -0.230141,-0.01981 -0.416839,-0.03205 -0.559685,-0.03605 z m 50.30561,0.910934 c -0.02778,0 -0.06515,0.01382 -0.112769,0.0416 -0.04761,0.02381 -0.105395,0.05348 -0.172851,0.0892 -0.06349,0.03571 -0.118764,0.06177 -0.166379,0.07765 -0.03968,0.01587 -0.10154,0.03738 -0.184867,0.06516 -0.07936,0.02381 -0.136675,0.04579 -0.172389,0.06563 -0.03174,0.01985 -0.04761,0.04952 -0.04761,0.08919 0,0.01588 0.0041,0.07161 0.01202,0.166843 0.0079,0.09126 0.01356,0.257558 0.01756,0.499603 0.004,0.238078 0.006,0.547573 0.006,0.928497 h -0.535653 c -0.138879,0 -0.208438,0.05778 -0.208438,0.172851 v 0.107222 c 0.0039,0.05159 0.02595,0.07718 0.06563,0.07718 h 0.678464 c 0,0.420602 -0.0097,1.073353 -0.02958,1.958206 -0.01985,0.880885 -0.03004,1.426698 -0.03004,1.636999 0,0.769783 0.272118,1.154496 0.815725,1.154496 0.595194,0 1.120604,-0.255795 1.576918,-0.767661 -0.01983,-0.09523 -0.0613,-0.150971 -0.124785,-0.166843 -0.365052,0.273788 -0.710347,0.410868 -1.035718,0.410868 -0.146818,0 -0.246057,-0.0793 -0.297635,-0.238017 -0.04762,-0.158718 -0.07934,-0.436494 -0.09521,-0.833289 -0.01983,-0.630904 0.0021,-1.68265 0.06563,-3.154759 h 1.202097 c 0.190464,0 0.28562,-0.04962 0.28562,-0.148819 v -0.130793 c -0.0039,-0.05159 -0.03364,-0.07765 -0.08919,-0.07765 h -1.398519 l 0.01202,-0.690017 c 0.008,-0.503929 0.0238,-0.910623 0.04761,-1.220124 0,-0.07539 -0.0281,-0.113231 -0.08366,-0.113231 z m -17.772212,1.880562 c -0.333308,0.119038 -0.848979,0.228478 -1.547338,0.327677 -0.02381,0.07539 -0.01612,0.144488 0.02357,0.207975 0.325373,0.03174 0.527931,0.08952 0.60729,0.172851 0.08333,0.07936 0.132945,0.285535 0.148816,0.618844 0.03174,0.845173 0.03174,1.690281 0,2.535454 -0.01587,0.456314 -0.06957,0.740211 -0.160832,0.851313 -0.0873,0.107136 -0.297553,0.172614 -0.63086,0.196422 -0.03174,0.03175 -0.04761,0.07729 -0.04761,0.136802 0,0.05555 0.01586,0.10313 0.04761,0.142809 0.54361,-0.03968 0.954383,-0.05962 1.232139,-0.05962 0.222205,0 0.597181,0.01994 1.124918,0.05962 0.09126,-0.0873 0.09126,-0.180412 0,-0.279611 -0.301563,-0.03174 -0.490302,-0.09722 -0.565695,-0.196422 -0.07142,-0.103166 -0.114921,-0.387063 -0.130793,-0.851313 -0.02381,-0.682488 -0.02381,-1.368999 0,-2.059422 0.008,-0.202365 0.07342,-0.365043 0.196423,-0.488049 0.472185,-0.456314 0.918297,-0.684471 1.3389,-0.684471 0.495993,0 0.759949,0.353456 0.791693,1.059752 0.03174,0.726135 0.03174,1.450023 0,2.17219 -0.01588,0.472186 -0.06141,0.760163 -0.136801,0.86333 -0.07142,0.0992 -0.265821,0.160597 -0.583257,0.184405 -0.07936,0.0873 -0.07936,0.180413 0,0.279611 0.432507,-0.03968 0.819261,-0.05962 1.160504,-0.05962 0.257918,0 0.630851,0.01994 1.118911,0.05962 0.07935,-0.09523 0.07935,-0.188348 0,-0.279611 -0.301566,-0.02381 -0.489841,-0.08724 -0.565234,-0.190413 -0.07142,-0.107134 -0.114922,-0.393072 -0.130792,-0.857322 -0.02381,-0.666616 -0.02381,-1.333186 0,-1.999801 0.008,-0.154751 0.0038,-0.309268 -0.01202,-0.464018 0.464249,-0.511865 1.005982,-0.768123 1.624983,-0.768123 0.472186,0 0.71982,0.345296 0.743627,1.035719 0.03174,0.734071 0.03174,1.46612 0,2.196223 -0.01588,0.46425 -0.06345,0.750188 -0.142809,0.857322 -0.07539,0.103167 -0.267747,0.166605 -0.577247,0.190413 -0.07936,0.09523 -0.07936,0.188348 0,0.279611 0.503929,-0.03968 0.888643,-0.05962 1.154495,-0.05962 0.269821,0 0.660654,0.01994 1.17252,0.05962 0.07936,-0.09523 0.07936,-0.188348 0,-0.279611 -0.325371,-0.02381 -0.527467,-0.08724 -0.606825,-0.190413 -0.07539,-0.107134 -0.120931,-0.393072 -0.136804,-0.857322 -0.02381,-0.65868 -0.02381,-1.32117 0,-1.987786 0.02381,-0.583288 -0.04983,-1.037562 -0.220453,-1.362933 -0.170623,-0.325372 -0.491898,-0.48805 -0.964083,-0.48805 -0.785653,0 -1.454265,0.287516 -2.00581,0.862868 -0.06745,0.06349 -0.108913,0.0594 -0.124784,-0.01202 -0.05556,-0.242044 -0.186512,-0.444141 -0.392844,-0.606827 -0.206334,-0.162686 -0.456471,-0.244025 -0.750099,-0.244025 -0.626936,0 -1.241845,0.317194 -1.844975,0.952066 -0.07936,0.07936 -0.119239,0.07936 -0.119239,0 0,-0.238077 0.01995,-0.535331 0.05962,-0.892446 0,-0.05555 -0.04962,-0.08365 -0.148819,-0.08365 z m -18.445129,0.02403 c -0.599159,0 -1.146552,0.251716 -1.642545,0.755645 -0.495993,0.50393 -0.744091,1.170963 -0.744091,2.000264 0,0.734071 0.182619,1.311141 0.54767,1.731744 0.412666,0.492025 1.025537,0.738082 1.838966,0.738082 0.845174,0 1.523987,-0.337135 2.035851,-1.011685 -0.03174,-0.119039 -0.113545,-0.182478 -0.244486,-0.190414 -0.242046,0.249981 -0.475861,0.438257 -0.702035,0.565231 -0.222204,0.126975 -0.4882,0.190414 -0.797701,0.190414 -0.234109,0 -0.482206,-0.07114 -0.74409,-0.213984 -0.257917,-0.142846 -0.471793,-0.353566 -0.642415,-0.631322 -0.246012,-0.396794 -0.369272,-0.940106 -0.369272,-1.630529 l 3.267529,-0.04761 c 0.146815,0 0.220454,-0.06956 0.220454,-0.208438 0,-0.575352 -0.152939,-1.059305 -0.458471,-1.452132 -0.305532,-0.39679 -0.827324,-0.595268 -1.565364,-0.595268 z m 8.440114,0 c -0.615032,0 -1.176705,0.253756 -1.684603,0.761653 -0.507895,0.50393 -0.761653,1.146942 -0.761653,1.928628 0,0.757878 0.212297,1.370748 0.636869,1.838967 0.428539,0.46425 1.003569,0.696487 1.725735,0.696487 0.81343,0.0039 1.46414,-0.388907 1.952199,-1.178529 -0.03174,-0.07142 -0.09314,-0.112878 -0.184406,-0.124785 -0.19443,0.253949 -0.432326,0.460125 -0.71405,0.618844 -0.281725,0.158717 -0.547721,0.238016 -0.797702,0.238016 -0.472185,0 -0.87276,-0.214338 -1.202099,-0.642876 -0.32934,-0.428539 -0.494058,-0.995869 -0.494058,-1.702165 0,-0.622968 0.144778,-1.1366 0.434439,-1.541331 0.289658,-0.408699 0.632914,-0.613297 1.029709,-0.613297 0.539643,0 0.845056,0.309496 0.916481,0.928496 0.02778,0.273789 0.172553,0.410867 0.434436,0.410867 0.146814,0 0.277773,-0.04192 0.392844,-0.125247 0.11507,-0.0873 0.172851,-0.216214 0.172851,-0.386835 0,-0.325372 -0.17288,-0.590907 -0.51809,-0.79724 -0.341244,-0.206334 -0.787356,-0.309653 -1.338902,-0.309653 z m 5.183677,0 c -0.749942,0 -1.35669,0.271656 -1.820942,0.815265 -0.428537,0.50393 -0.642876,1.14286 -0.642876,1.916611 0,0.65868 0.212297,1.239831 0.636868,1.74376 0.428539,0.499962 1.029629,0.750099 1.803379,0.750099 0.678521,0.0039 1.245852,-0.214449 1.702166,-0.654893 0.503929,-0.495993 0.756108,-1.146704 0.756108,-1.952197 0,-0.436474 -0.07568,-0.843168 -0.226462,-1.220124 -0.150783,-0.380923 -0.416317,-0.708318 -0.797242,-0.982106 -0.380922,-0.277757 -0.851516,-0.416414 -1.410999,-0.416414 z m 15.136007,0 c -0.599162,0 -1.146554,0.251716 -1.642547,0.755645 -0.495993,0.50393 -0.74409,1.170963 -0.74409,2.000264 0,0.734071 0.182617,1.311141 0.547669,1.731744 0.412668,0.492025 1.025538,0.738082 1.838968,0.738082 0.845171,0 1.523521,-0.337135 2.035387,-1.011685 -0.03174,-0.119039 -0.113083,-0.182478 -0.244025,-0.190414 -0.242044,0.249981 -0.47586,0.438257 -0.702033,0.565231 -0.222206,0.126975 -0.488202,0.190414 -0.797702,0.190414 -0.234107,0 -0.482207,-0.07114 -0.74409,-0.213984 -0.257917,-0.142846 -0.472255,-0.353566 -0.642877,-0.631322 -0.246012,-0.396794 -0.368809,-0.940106 -0.368809,-1.630529 l 3.267528,-0.04761 c 0.146814,0 0.220453,-0.06956 0.220453,-0.208438 0,-0.575352 -0.152938,-1.059305 -0.45847,-1.452132 -0.305532,-0.396795 -0.827325,-0.595273 -1.565362,-0.595273 z m 12.136072,0 c -0.749945,0 -1.357156,0.271656 -1.821405,0.815265 -0.428538,0.50393 -0.642877,1.14286 -0.642877,1.916611 0,0.65868 0.212297,1.239831 0.636869,1.74376 0.428539,0.499962 1.029629,0.750099 1.803378,0.750099 0.67852,0.0039 1.245853,-0.214449 1.702165,-0.654893 0.503931,-0.495993 0.75611,-1.146704 0.75611,-1.952197 0,-0.436474 -0.07522,-0.843168 -0.226001,-1.220124 C 71.5857,17.455075 71.319705,17.127679 70.93878,16.853891 70.557858,16.576134 70.087726,16.437477 69.528245,16.437477 Z m -40.89587,0.279612 c 0.301565,0 0.5594,0.126878 0.773671,0.380826 0.214269,0.249982 0.321668,0.607056 0.321668,1.071306 0.0039,0.103167 -0.05177,0.154826 -0.166843,0.154826 l -2.357057,0.06563 c 0.0992,-0.583289 0.289977,-1.007883 0.571702,-1.273736 0.285693,-0.265852 0.571168,-0.398851 0.856859,-0.39885 z m 13.451404,0 c 0.503929,0 0.910623,0.244017 1.220124,0.732075 0.3095,0.488057 0.464478,1.146929 0.464478,1.97623 0,0.65868 -0.145241,1.150793 -0.4349,1.476165 -0.289661,0.321404 -0.600735,0.482041 -0.934043,0.482041 -0.372985,0 -0.694724,-0.148857 -0.964544,-0.446454 -0.265851,-0.301564 -0.452089,-0.63304 -0.559223,-0.994123 -0.103166,-0.361084 -0.154827,-0.708419 -0.154827,-1.041727 0,-0.595193 0.106937,-1.106784 0.321207,-1.535323 0.21427,-0.432507 0.561605,-0.648884 1.041728,-0.648884 z m 15.308394,0 c 0.301563,0 0.559398,0.126878 0.773669,0.380826 0.214268,0.249982 0.321667,0.607056 0.321667,1.071306 0.0039,0.103167 -0.05177,0.154826 -0.16684,0.154826 l -2.357058,0.06563 c 0.0992,-0.583289 0.289514,-1.007883 0.571239,-1.273736 0.285693,-0.265852 0.57163,-0.398851 0.857323,-0.39885 z m 11.963221,0 c 0.503929,0 0.910623,0.244017 1.220124,0.732075 0.3095,0.488057 0.464479,1.146929 0.464479,1.97623 0,0.65868 -0.144778,1.150793 -0.43444,1.476165 -0.289658,0.321404 -0.601196,0.482041 -0.934503,0.482041 -0.372986,0 -0.694262,-0.148857 -0.964083,-0.446454 -0.265852,-0.301564 -0.45255,-0.63304 -0.559685,-0.994123 -0.103165,-0.361084 -0.154827,-0.708419 -0.154827,-1.041727 0,-0.595193 0.107399,-1.106784 0.32167,-1.535323 0.214269,-0.432507 0.561142,-0.648884 1.041265,-0.648884 z" />
  <path
     id="path9311"
     style="font-size:12.2462px;line-height:1.25;font-family:'Linux Libertine Display';-inkscape-font-specification:'Linux Libertine Display';text-align:center;letter-spacing:0px;word-spacing:0px;text-anchor:middle;fill:#fff18d;stroke-width:0.264583"
     d="m 45.306574,26.588207 c -0.64181,0 -1.192112,0.197043 -1.650547,0.591696 -0.454449,0.390665 -0.681612,0.900806 -0.681612,1.530654 0,0.522219 0.155699,0.943028 0.466638,1.261938 0.314925,0.318913 0.749173,0.600192 1.303282,0.84336 0.06378,0.02791 0.1994,0.08372 0.406693,0.167433 0.211278,0.07973 0.368676,0.143368 0.472321,0.191202 0.107633,0.04784 0.247166,0.127642 0.418579,0.239262 0.175403,0.111617 0.307107,0.224941 0.394809,0.340548 0.0877,0.115605 0.167507,0.267393 0.239262,0.454753 0.07176,0.187359 0.107487,0.392229 0.107487,0.615466 0,0.4983 -0.139533,0.895114 -0.418578,1.190109 -0.275064,0.291004 -0.653495,0.436665 -1.135849,0.436665 -0.578027,0 -1.068602,-0.159612 -1.471229,-0.478525 -0.402624,-0.31891 -0.669432,-0.779365 -0.800983,-1.38131 -0.08371,-0.01995 -0.133917,-0.02777 -0.149863,-0.02377 -0.01196,0.004 -0.05382,0.02406 -0.125574,0.05994 0.03986,0.725521 0.121886,1.345072 0.245465,1.859317 0.231208,0 0.557741,0.04799 0.980299,0.14366 0.426546,0.09169 0.833401,0.137459 1.220082,0.137459 0.578027,0 1.08204,-0.133403 1.51257,-0.400491 0.350803,-0.219253 0.629864,-0.50614 0.837157,-0.860931 0.207293,-0.354788 0.311092,-0.725913 0.311092,-1.112591 0,-0.534178 -0.149572,-0.960597 -0.448551,-1.279509 -0.298979,-0.318911 -0.707533,-0.590151 -1.225764,-0.813388 -0.03986,-0.01595 -0.163227,-0.06341 -0.37052,-0.143142 -0.207293,-0.07973 -0.374732,-0.147799 -0.502296,-0.203608 -0.123579,-0.05581 -0.287104,-0.141226 -0.49041,-0.256831 -0.199319,-0.115604 -0.358931,-0.229444 -0.478523,-0.341063 -0.115604,-0.115607 -0.218887,-0.259051 -0.310576,-0.430467 -0.0877,-0.1754 -0.131773,-0.359005 -0.131773,-0.550352 0,-0.35479 0.139531,-0.691364 0.418579,-1.010274 0.279048,-0.318913 0.593841,-0.478526 0.944644,-0.478526 0.948762,-0.004 1.59452,0.558054 1.937348,1.686203 0.123582,0 0.215644,-0.024 0.275437,-0.07183 -0.03588,-0.490328 -0.110072,-1.016119 -0.221692,-1.5782 -0.111619,-0.01594 -0.336568,-0.07567 -0.67541,-0.179316 -0.334856,-0.103645 -0.735586,-0.155546 -1.201994,-0.155546 z m 7.414533,0 c -1.183958,0 -2.142297,0.404641 -2.875793,1.213879 -0.733497,0.809237 -1.100191,1.805522 -1.100191,2.989483 0,1.152067 0.326533,2.103096 0.980303,2.852539 0.653767,0.74944 1.608709,1.12396 2.864424,1.12396 0.605933,0 1.193662,-0.141229 1.763718,-0.424262 0.57404,-0.287022 1.064614,-0.696092 1.471226,-1.226283 -0.06777,-0.123576 -0.163743,-0.185002 -0.287319,-0.185002 -0.430533,0.474383 -0.868691,0.817084 -1.315167,1.028362 -0.446477,0.207293 -0.954918,0.311092 -1.524971,0.311092 -0.601946,0 -1.126038,-0.187518 -1.572514,-0.56224 -0.446477,-0.378706 -0.771311,-0.843074 -0.974617,-1.393195 -0.203306,-0.550122 -0.304892,-1.136156 -0.304892,-1.758032 0,-1.004573 0.276849,-1.861841 0.830958,-2.57142 0.554109,-0.709578 1.216033,-1.064019 1.985407,-1.064019 1.379294,-0.004 2.290162,0.721577 2.732651,2.176614 0.115604,0.008 0.209365,-0.01211 0.28112,-0.05995 -0.05581,-0.585999 -0.145656,-1.217803 -0.269235,-1.895491 -0.08371,-0.008 -0.40685,-0.101732 -0.968933,-0.28112 -0.558094,-0.183375 -1.130173,-0.274919 -1.716175,-0.274918 z m 8.347811,0 c -0.275058,0.163441 -0.48827,0.244946 -0.639752,0.244946 l -2.840654,6.691064 c -0.147498,0.342831 -0.314936,0.574424 -0.502296,0.694015 -0.183375,0.11959 -0.424489,0.189357 -0.723469,0.209289 -0.03588,0.03588 -0.05374,0.08335 -0.05374,0.143144 0,0.05581 0.01786,0.101579 0.05374,0.137459 0.127564,-0.004 0.316781,-0.01572 0.567923,-0.03565 0.25513,-0.01595 0.470554,-0.02377 0.645957,-0.02377 0.187359,0 0.424563,0.0078 0.711583,0.02377 0.291008,0.01992 0.494176,0.03165 0.609783,0.03565 0.03988,-0.03588 0.05826,-0.08165 0.05426,-0.137459 3e-6,-0.05979 -0.01838,-0.107264 -0.05426,-0.143144 -0.0877,-0.004 -0.165293,-0.01011 -0.233061,-0.01809 -0.06777,-0.01196 -0.145359,-0.02591 -0.233061,-0.04186 -0.0877,-0.01993 -0.155765,-0.04392 -0.203605,-0.07183 -0.04385,-0.0279 -0.09132,-0.06363 -0.143145,-0.107487 -0.05183,-0.04784 -0.07583,-0.101954 -0.07183,-0.161747 0.008,-0.0598 0.02192,-0.133475 0.04186,-0.221176 l 0.735357,-1.901693 c 0.03588,-0.09168 0.08165,-0.159234 0.137459,-0.203089 0.0598,-0.04385 0.157467,-0.06563 0.293005,-0.06563 h 2.553332 l 0.777214,2.254126 c 0.01992,0.05581 0.03217,0.107706 0.03617,0.155546 0.004,0.04783 -0.0038,0.08969 -0.02377,0.125574 -0.01595,0.03189 -0.03433,0.0598 -0.05426,0.08371 -0.01594,0.02392 -0.04776,0.0457 -0.0956,0.06563 -0.04783,0.01595 -0.08969,0.0299 -0.125574,0.04186 -0.03588,0.008 -0.08948,0.01801 -0.161232,0.02997 -0.07175,0.008 -0.129778,0.01409 -0.17363,0.01808 -0.03986,0.004 -0.103502,0.0079 -0.191204,0.01189 -0.05182,0.004 -0.09147,0.0062 -0.119372,0.0062 -0.03588,0.03588 -0.05426,0.08335 -0.05426,0.143144 0,0.05581 0.01838,0.101579 0.05426,0.137459 0.09966,0 0.344689,-0.0095 0.735354,-0.02946 0.394655,-0.01993 0.683757,-0.02997 0.867132,-0.02997 0.191347,0 0.458155,0.0078 0.800984,0.02377 0.346816,0.01992 0.573979,0.03165 0.681611,0.03565 0.03588,-0.03588 0.05426,-0.08165 0.05426,-0.137459 0,-0.05979 -0.01838,-0.107264 -0.05426,-0.143144 -0.151481,-0.01196 -0.268718,-0.02591 -0.352432,-0.04186 -0.07973,-0.01594 -0.175702,-0.04606 -0.287322,-0.08992 -0.107633,-0.04784 -0.199176,-0.117602 -0.274918,-0.20929 -0.07176,-0.09567 -0.133697,-0.219038 -0.185518,-0.37052 z m 7.217132,0.04186 c -0.09169,0 -0.348454,0.01956 -0.771012,0.05943 -0.418573,0.03987 -0.717716,0.05994 -0.897104,0.05994 -0.219252,0 -0.49049,-0.01004 -0.813387,-0.02997 -0.322898,-0.01993 -0.574053,-0.02997 -0.753441,-0.02997 -0.0319,0.03189 -0.04754,0.07818 -0.04754,0.137975 0,0.05581 0.01565,0.103278 0.04754,0.143145 0.450461,0.01595 0.735653,0.08401 0.855245,0.203605 0.123576,0.115604 0.189431,0.418663 0.197402,0.908989 0.01595,1.359361 0.02377,2.237891 0.02377,2.636531 0,1.052409 -0.0078,1.917504 -0.02377,2.595192 -0.008,0.498298 -0.07383,0.805267 -0.197402,0.920872 -0.119592,0.11162 -0.404784,0.175773 -0.855245,0.19172 -0.0319,0.03189 -0.04754,0.07766 -0.04754,0.137459 0,0.05581 0.01565,0.103277 0.04754,0.143144 0.171416,0 0.422571,-0.0095 0.753441,-0.02946 0.330872,-0.01993 0.609936,-0.02997 0.837157,-0.02997 0.25513,0 0.568227,0.01004 0.938962,0.02997 0.370734,0.01993 0.637542,0.02946 0.800986,0.02946 0.03189,-0.03987 0.04806,-0.08734 0.04806,-0.143144 0,-0.05979 -0.01617,-0.105564 -0.04806,-0.137459 -0.474382,-0.02392 -0.800915,-0.08416 -0.980302,-0.179832 -0.179388,-0.09966 -0.273148,-0.31287 -0.28112,-0.639755 -0.01595,-1.223822 -0.02377,-2.084491 -0.02377,-2.582789 0.227224,0.07176 0.573836,0.107487 1.040246,0.107487 0.530188,0 0.990642,-0.07589 1.38131,-0.227377 0.394653,-0.151482 0.693796,-0.352954 0.897102,-0.604097 0.203306,-0.25513 0.350663,-0.514112 0.442351,-0.777213 0.09567,-0.263102 0.143661,-0.538253 0.143661,-0.825273 0,-0.215265 -0.04016,-0.428477 -0.11989,-0.639754 -0.07574,-0.211278 -0.203018,-0.430615 -0.382405,-0.657842 -0.179388,-0.231209 -0.460666,-0.416512 -0.84336,-0.556038 -0.382693,-0.14351 -0.839234,-0.214974 -1.369425,-0.214974 z m 9.376172,0.03566 c -0.330872,0.05581 -0.536255,0.08371 -0.615984,0.08371 h -3.575492 c -0.123579,0 -0.369123,-0.01004 -0.735873,-0.02997 -0.366746,-0.01993 -0.651422,-0.02997 -0.854728,-0.02997 -0.03189,0.03189 -0.04806,0.07818 -0.04806,0.137975 0,0.05581 0.01617,0.103278 0.04806,0.143145 0.450464,0.01595 0.733438,0.08401 0.849045,0.203605 0.119589,0.115604 0.18714,0.418663 0.203089,0.908989 0.01595,0.673701 0.02377,1.552234 0.02377,2.636531 0,1.060381 -0.0078,1.925476 -0.02377,2.595192 -0.01595,0.490326 -0.0835,0.795597 -0.203089,0.915189 -0.115607,0.115604 -0.398581,0.181456 -0.849045,0.197403 -0.03189,0.03189 -0.04806,0.07766 -0.04806,0.137459 0,0.05581 0.01617,0.103277 0.04806,0.143144 0.195334,0 0.482222,-0.0095 0.86093,-0.02946 0.378706,-0.01993 0.629865,-0.02997 0.753444,-0.02997 h 2.720763 c 0.390665,0 0.912543,0.01956 1.566312,0.05943 0.171416,-0.617892 0.319289,-1.311119 0.442868,-2.080492 -0.103645,-0.06379 -0.201319,-0.08386 -0.293005,-0.05994 -0.330872,1.175985 -0.871133,1.763715 -1.620573,1.763715 h -1.907379 c -0.287017,0 -0.438806,-0.175263 -0.454752,-0.526066 -0.02392,-0.689644 -0.03175,-1.747872 -0.02377,-3.175 l 1.435055,0.01188 c 0.334856,0 0.582099,0.03573 0.741555,0.107487 0.163441,0.06777 0.262811,0.149789 0.298691,0.245464 0.03986,0.09567 0.06777,0.253072 0.08371,0.472321 0.0877,0.09169 0.177549,0.09169 0.269235,0 0,-0.13155 -0.0078,-0.291163 -0.02377,-0.478522 -0.01595,-0.18736 -0.02377,-0.346972 -0.02377,-0.478523 0,-0.155469 0.0078,-0.348599 0.02377,-0.579811 0.01595,-0.235196 0.02377,-0.392594 0.02377,-0.472323 -0.0877,-0.09169 -0.177546,-0.09169 -0.269235,0 -0.01594,0.350803 -0.0835,0.574053 -0.203086,0.669726 -0.115607,0.09169 -0.422577,0.141372 -0.920874,0.149347 l -1.435055,0.01189 0.02377,-2.672704 c 0.01595,-0.358775 0.167732,-0.537954 0.454752,-0.537954 h 1.907379 c 0.223237,0 0.40854,0.03352 0.556038,0.101288 0.151482,0.06378 0.279275,0.181533 0.382923,0.352949 0.103648,0.171415 0.179025,0.317074 0.226859,0.436665 0.04784,0.115605 0.117602,0.316561 0.209288,0.603581 0.07973,0.01594 0.177401,-0.0036 0.293005,-0.05943 -0.115607,-0.956733 -0.205454,-1.560631 -0.269232,-1.811774 0,-0.02392 -0.01565,-0.03617 -0.04754,-0.03617 z m -55.807448,0.02377 c -0.03588,0.03588 -0.05374,0.08387 -0.05374,0.143661 0,0.05581 0.01786,0.101579 0.05374,0.137459 0.175402,0.01595 0.30098,0.0299 0.376721,0.04186 0.07973,0.008 0.169058,0.02584 0.268718,0.05374 0.103643,0.0279 0.173409,0.06415 0.209289,0.108003 0.03588,0.03987 0.07382,0.101288 0.113689,0.185002 0.03986,0.08371 0.06607,0.181385 0.07803,0.293005 0.01195,0.11162 0.01977,0.255579 0.02377,0.430982 0.02392,1.024504 0.03566,1.903034 0.03566,2.636531 0,0.717553 -0.01174,1.582648 -0.03566,2.595192 -0.004,0.259114 -0.02015,0.458372 -0.04806,0.597895 -0.0279,0.139525 -0.08933,0.249452 -0.185002,0.329179 -0.09169,0.07574 -0.193272,0.123727 -0.304891,0.14366 -0.111619,0.01595 -0.289097,0.0299 -0.532267,0.04186 -0.03588,0.03588 -0.05374,0.08335 -0.05374,0.143144 0,0.05581 0.01786,0.101579 0.05374,0.137459 0.793292,-0.03987 1.323512,-0.05943 1.590601,-0.05943 0.494313,0 1.020619,0.01956 1.578715,0.05943 0.03988,-0.03588 0.05774,-0.08165 0.05374,-0.137459 0,-0.05979 -0.01786,-0.107264 -0.05374,-0.143144 -0.24317,-0.008 -0.420648,-0.02192 -0.532268,-0.04186 -0.107632,-0.01993 -0.207519,-0.07013 -0.299206,-0.149862 -0.09169,-0.07973 -0.15141,-0.187439 -0.179317,-0.322977 -0.02392,-0.135538 -0.04009,-0.334793 -0.04806,-0.597895 -0.02392,-1.012544 -0.03566,-1.87321 -0.03566,-2.582788 0,-0.94079 0.01174,-1.823752 0.03566,-2.648935 0.008,-0.263101 0.02414,-0.46066 0.04806,-0.592211 0.0279,-0.135538 0.08763,-0.241036 0.179317,-0.316778 0.09567,-0.07973 0.19556,-0.129929 0.299206,-0.149863 0.103647,-0.01993 0.281125,-0.03779 0.532268,-0.05374 0.03988,-0.03588 0.05774,-0.08165 0.05374,-0.137459 0,-0.05979 -0.01786,-0.10778 -0.05374,-0.143661 -0.753429,0.03987 -1.28195,0.05994 -1.584916,0.05994 -0.402626,0 -0.930631,-0.02008 -1.5844,-0.05994 z m 9.48366,0 c -0.03588,0.03588 -0.05374,0.08387 -0.05374,0.143661 0,0.05581 0.01787,0.101579 0.05374,0.137459 0.251142,0.02391 0.430318,0.04791 0.537951,0.07183 0.107632,0.02392 0.209216,0.07973 0.30489,0.167434 0.09966,0.08371 0.161599,0.203166 0.18552,0.358635 0.02791,0.151482 0.04186,0.36912 0.04186,0.652155 l 0.01189,4.245219 c 0,0.247155 -0.04969,0.371038 -0.149344,0.371038 -0.01993,-2e-6 -0.04223,-0.0083 -0.06614,-0.02429 -0.01993,-0.01594 -0.04784,-0.04385 -0.08372,-0.08372 -0.03587,-0.04385 -0.06939,-0.08571 -0.101285,-0.125574 -0.03189,-0.04385 -0.08209,-0.109186 -0.149863,-0.196887 -0.06777,-0.09169 -0.129193,-0.173707 -0.185002,-0.245462 l -4.203877,-5.411558 -1.578715,-0.02377 c -0.03588,0.03588 -0.05374,0.08387 -0.05374,0.143661 0,0.05581 0.01786,0.101579 0.05374,0.137459 0.526204,0.03588 0.869422,0.338934 1.028878,0.908989 l -0.0124,5.261692 c 0,0.279049 -0.01395,0.494475 -0.04186,0.645957 -0.02392,0.151484 -0.08364,0.270933 -0.179317,0.358635 -0.09169,0.08371 -0.194971,0.139525 -0.310576,0.167431 -0.111619,0.02791 -0.289097,0.05411 -0.532267,0.07803 -0.03588,0.03588 -0.05374,0.08335 -0.05374,0.143144 0,0.05581 0.01786,0.102095 0.05374,0.137975 0.191347,-0.004 0.414597,-0.01624 0.669726,-0.03617 0.25513,-0.01595 0.472253,-0.02377 0.65164,-0.02377 0.175402,0 0.388612,0.0078 0.639755,0.02377 0.251142,0.01992 0.474393,0.03217 0.669726,0.03617 0.03588,-0.03588 0.05374,-0.08217 0.05374,-0.137975 0,-0.05979 -0.01786,-0.107264 -0.05374,-0.143144 -0.251142,-0.02392 -0.430319,-0.04791 -0.537952,-0.07183 -0.107632,-0.02392 -0.211432,-0.07803 -0.311092,-0.161747 -0.09567,-0.0877 -0.155397,-0.20715 -0.179317,-0.358635 -0.02392,-0.155469 -0.03617,-0.374806 -0.03617,-0.657842 l -0.01189,-3.90467 c 0,-0.39864 0.05411,-0.597895 0.161747,-0.597895 0.06777,-0.004 0.205086,0.129416 0.412378,0.400492 l 4.275709,5.39967 c 0.14351,0.195333 0.306517,0.293004 0.489892,0.293004 0.01993,0 0.0361,-0.0017 0.04806,-0.0057 0.01595,0 0.02768,-0.0044 0.03566,-0.0124 0.01196,-0.008 0.022,-0.0158 0.02997,-0.02377 0.008,-0.008 0.01409,-0.01971 0.01809,-0.03566 0.004,-0.01595 0.0062,-0.0299 0.0062,-0.04186 0.004,-0.01196 0.0057,-0.02982 0.0057,-0.05374 0.004,-0.02392 0.0062,-0.044 0.0062,-0.05995 v -0.06563 -0.07803 l 0.01188,-6.170684 c 0,-0.279048 0.01174,-0.494472 0.03566,-0.645956 0.02392,-0.151482 0.08416,-0.269235 0.179835,-0.352949 0.09567,-0.0877 0.198956,-0.145209 0.310576,-0.173117 0.115604,-0.0279 0.295299,-0.05411 0.538467,-0.07803 0.03588,-0.03588 0.05374,-0.08165 0.05374,-0.137459 0,-0.05979 -0.01786,-0.10778 -0.05374,-0.143661 -0.191347,0.004 -0.414597,0.01624 -0.669727,0.03617 -0.255127,0.01595 -0.472768,0.02377 -0.652156,0.02377 -0.179387,0 -0.394295,-0.0078 -0.645437,-0.02377 -0.251146,-0.01992 -0.474396,-0.03217 -0.669727,-0.03617 z m 3.348633,0 c -0.03189,0.03189 -0.04806,0.07818 -0.04806,0.137975 0,0.05581 0.01617,0.103278 0.04806,0.143145 0.450461,0.01595 0.735134,0.08401 0.854728,0.203605 0.123577,0.115604 0.189429,0.418663 0.197403,0.908989 0.03189,1.359361 0.04806,2.237891 0.04806,2.636531 0,0.374721 -0.01617,1.239816 -0.04806,2.595192 -0.008,0.490326 -0.07383,0.795597 -0.197403,0.915189 -0.119594,0.115604 -0.404267,0.181456 -0.854728,0.197403 -0.03189,0.03189 -0.04806,0.07766 -0.04806,0.137459 0,0.05581 0.01617,0.103277 0.04806,0.143144 0.171415,0 0.422571,-0.0095 0.753441,-0.02946 0.330872,-0.01993 0.609936,-0.02997 0.83716,-0.02997 0.219252,0 0.492186,0.01004 0.81907,0.02997 0.326885,0.01993 0.57974,0.02946 0.759127,0.02946 0.09169,-0.0877 0.09169,-0.180943 0,-0.280603 -0.446476,-0.01594 -0.733364,-0.0818 -0.86093,-0.197403 -0.127564,-0.119592 -0.195115,-0.424863 -0.203087,-0.915189 -0.02392,-0.980654 -0.03617,-1.817844 -0.03617,-2.511475 0.470394,0.01594 0.841002,0.191725 1.112075,0.526581 l 1.925466,2.42156 c 0.263099,0.346816 0.410972,0.642046 0.442865,0.885216 0,0.04783 0.01956,0.07131 0.05943,0.07131 0.05581,0 0.131704,-0.0095 0.227377,-0.02946 0.09966,-0.01993 0.21911,-0.02997 0.358635,-0.02997 0.163441,0 0.386691,0.01004 0.669727,0.02997 0.283032,0.01993 0.514625,0.02946 0.694012,0.02946 0.09169,-0.0877 0.09169,-0.180943 0,-0.280603 -0.506272,-0.08372 -0.906999,-0.309179 -1.201994,-0.675926 L 38.358166,30.570395 C 38.254518,30.446816 38.20262,30.345232 38.20262,30.265502 38.19862,30.15787 38.340378,29.9564 38.6274,29.661406 l 1.799889,-1.847432 c 0.450464,-0.482354 1.006375,-0.763633 1.668116,-0.84336 0.09169,-0.0877 0.09169,-0.181459 0,-0.28112 -0.179387,0 -0.396512,0.01004 -0.651639,0.02997 -0.251145,0.01993 -0.46214,0.02997 -0.633553,0.02997 -0.171416,0 -0.410834,-0.01004 -0.717786,-0.02997 -0.306953,-0.01993 -0.550285,-0.02997 -0.729673,-0.02997 -0.03189,0.03189 -0.04754,0.07818 -0.04754,0.137975 0,0.05581 0.01565,0.103278 0.04754,0.143145 0.171416,0.01595 0.31486,0.0522 0.430467,0.108003 0.115601,0.05182 0.195408,0.135543 0.23926,0.251148 0.04385,0.11162 -0.0237,0.256762 -0.203089,0.43615 l -1.961637,2.15284 c -0.291007,0.33087 -0.661614,0.51226 -1.112075,0.544153 0,-0.657754 0.01225,-1.450869 0.03617,-2.3797 0.008,-0.490326 0.07382,-0.793385 0.197403,-0.908989 0.127564,-0.119589 0.41615,-0.187658 0.866614,-0.203605 0.09169,-0.0877 0.09169,-0.181459 0,-0.28112 -0.171416,0 -0.42427,0.01004 -0.759127,0.02997 -0.334856,0.01993 -0.616135,0.02997 -0.843359,0.02997 -0.219252,0 -0.489974,-0.01004 -0.812871,-0.02997 -0.322898,-0.01993 -0.574054,-0.02997 -0.753441,-0.02997 z m 33.521468,0.233577 c 0.490326,0 0.89888,0.153485 1.225764,0.460439 0.326885,0.306951 0.490411,0.81879 0.490411,1.53634 0,1.279631 -0.620067,1.91978 -1.859836,1.91978 -0.466407,0 -0.789027,-0.02008 -0.968414,-0.05995 v -0.05994 c -3e-6,-0.785318 0.0078,-1.855282 0.02377,-3.210655 0.008,-0.195334 0.08778,-0.340993 0.239262,-0.436666 0.151482,-0.09966 0.434457,-0.149347 0.849043,-0.149347 z m -7.791257,0.92656 h 0.03566 l 1.177705,3.396692 h -2.188495 c -0.127569,0 -0.219112,-0.0223 -0.274921,-0.06615 -0.05183,-0.04385 -0.06356,-0.09745 -0.03565,-0.161231 z" />
</svg>
